%YAML 1.1
%TAG !u! tag:unity3d.com,2011:
--- !u!114 &11400000
MonoBehaviour:
  m_ObjectHideFlags: 0
  m_CorrespondingSourceObject: {fileID: 0}
  m_PrefabInstance: {fileID: 0}
  m_PrefabAsset: {fileID: 0}
  m_GameObject: {fileID: 0}
  m_Enabled: 1
  m_EditorHideFlags: 0
  m_Script: {fileID: 11500000, guid: 468a46d0ae32c3544b7d98094e6448a9, type: 3}
  m_Name: AddressableAssetSettings
  m_EditorClassIdentifier: 
  m_DefaultGroup: cade806d6145c4159ab685a5f78ec7ad
  m_currentHash:
    serializedVersion: 2
    Hash: a93f8e4b7bbe3d292700e2905ad2e91e
  m_OptimizeCatalogSize: 0
  m_BuildRemoteCatalog: 0
  m_BundleLocalCatalog: 0
  m_CatalogRequestsTimeout: 0
  m_DisableCatalogUpdateOnStart: 0
  m_IgnoreUnsupportedFilesInBuild: 0
  m_UniqueBundleIds: 0
  m_NonRecursiveBuilding: 1
  m_CCDEnabled: 0
  m_maxConcurrentWebRequests: 3
  m_ContiguousBundles: 1
  m_StripUnityVersionFromBundleBuild: 0
  m_DisableVisibleSubAssetRepresentations: 0
  m_ShaderBundleNaming: 0
  m_ShaderBundleCustomNaming: 
  m_MonoScriptBundleNaming: 2
  m_CheckForContentUpdateRestrictionsOption: 0
  m_MonoScriptBundleCustomNaming: 
  m_RemoteCatalogBuildPath:
    m_Id: 
  m_RemoteCatalogLoadPath:
    m_Id: 
  m_ContentStateBuildPathProfileVariableName: <default settings path>
  m_CustomContentStateBuildPath: 
  m_ContentStateBuildPath: 
  m_BuildAddressablesWithPlayerBuild: 0
  m_overridePlayerVersion: '[UnityEditor.PlayerSettings.bundleVersion]'
  m_GroupAssets:
  - {fileID: 11400000, guid: bc91e943b48e2449a83eb043c72cc402, type: 2}
  - {fileID: 11400000, guid: 20b84e26a3c8e411f85535a99b0bbe01, type: 2}
  m_BuildSettings:
    m_CompileScriptsInVirtualMode: 0
    m_CleanupStreamingAssetsAfterBuilds: 1
    m_LogResourceManagerExceptions: 1
    m_BundleBuildPath: Temp/com.unity.addressables/AssetBundles
  m_ProfileSettings:
    m_Profiles:
    - m_InheritedParent: 
      m_Id: 95013711b7f5348d9a2f85c53e1e26bc
      m_ProfileName: Default
      m_Values:
      - m_Id: 3ccd14cd341804c7e80f72233ac97dbd
        m_Value: '[UnityEditor.EditorUserBuildSettings.activeBuildTarget]'
      - m_Id: 10410ab871b364768b7d9c6953e1cc58
        m_Value: '[UnityEngine.AddressableAssets.Addressables.BuildPath]/[BuildTarget]'
      - m_Id: 95a7566f611d14ee0877a39813a86d11
        m_Value: '{UnityEngine.AddressableAssets.Addressables.RuntimePath}/[BuildTarget]'
      - m_Id: 40394da07194042b480732c371fcbfb9
        m_Value: ServerData/[BuildTarget]
      - m_Id: 75be0d66437684085bef1aa7cd087fec
        m_Value: http://[PrivateIpAddress]:[HostingServicePort]
    m_ProfileEntryNames:
    - m_Id: 3ccd14cd341804c7e80f72233ac97dbd
      m_Name: BuildTarget
      m_InlineUsage: 0
    - m_Id: 10410ab871b364768b7d9c6953e1cc58
      m_Name: Local.BuildPath
      m_InlineUsage: 0
    - m_Id: 95a7566f611d14ee0877a39813a86d11
      m_Name: Local.LoadPath
      m_InlineUsage: 0
    - m_Id: 40394da07194042b480732c371fcbfb9
      m_Name: Remote.BuildPath
      m_InlineUsage: 0
    - m_Id: 75be0d66437684085bef1aa7cd087fec
      m_Name: Remote.LoadPath
      m_InlineUsage: 0
    m_ProfileVersion: 1
  m_LabelTable:
    m_LabelNames:
    - default
  m_SchemaTemplates: []
  m_GroupTemplateObjects:
  - {fileID: 11400000, guid: 2ecbb885d81cf4e08ad920b260d3b53a, type: 2}
  m_InitializationObjects: []
  m_CertificateHandlerType:
    m_AssemblyName: 
    m_ClassName: 
  m_ActivePlayerDataBuilderIndex: 3
  m_DataBuilders:
  - {fileID: 11400000, guid: 1981d68e2c6b049ad9ef35fe66ac46e6, type: 2}
  - {fileID: 11400000, guid: 755964d8976b64646b708ef4f310a7d2, type: 2}
  - {fileID: 11400000, guid: 5179046575c7d4162a1805f5e1a0c02f, type: 2}
  - {fileID: 11400000, guid: 1ecb3bd6c296a4c22b95a020cf0b2443, type: 2}
  m_ActiveProfileId: 95013711b7f5348d9a2f85c53e1e26bc
  m_HostingServicesManager:
    m_HostingServiceInfos: []
    m_Settings: {fileID: 11400000}
    m_NextInstanceId: 0
    m_RegisteredServiceTypeRefs: []
    m_PingTimeoutInMilliseconds: 5000
